<?xml version="1.0" encoding="iso-8859-1"?>
<!-- Generator: Adobe Illustrator 16.0.0, SVG Export Plug-In . SVG Version: 6.00 Build 0)  -->
<!DOCTYPE svg PUBLIC "-//W3C//DTD SVG 1.1//EN" "http://www.w3.org/Graphics/SVG/1.1/DTD/svg11.dtd">
<svg version="1.1" id="Capa_1" xmlns="http://www.w3.org/2000/svg" xmlns:xlink="http://www.w3.org/1999/xlink" x="0px" y="0px"
	 width="295.183px" height="295.183px" viewBox="0 0 295.183 295.183" style="enable-background:new 0 0 295.183 295.183;"
	 xml:space="preserve">
<g>
	<g>
		<path d="M221.791,98.584c0-5.25-3.21-9.76-7.779-11.679c-0.768,8.612-3.154,16.745-6.8,24.159
			c0.635,0.094,1.265,0.188,1.914,0.188C216.108,111.256,221.791,105.574,221.791,98.584z"/>
		<path d="M145.225,138.748c30.62,0,55.827-22.297,58.473-53.496H86.752C89.395,116.451,114.607,138.748,145.225,138.748z
			 M108.008,95.517c6.287,10.395,15.503,18.255,27.333,21.485c5.756,1.571,3.306,10.509-2.46,8.93
			c-14.117-3.854-25.354-13.335-32.862-25.745C96.918,95.065,104.926,90.416,108.008,95.517z"/>
		<path d="M29.132,118.457c0,9.693,1.29,19.611,3.829,29.475c0.061,0.66,0.203,1.311,0.427,1.94
			c0.749,2.082,7.419,20.515,12.032,28.314c23.603,44.879,55.964,83.284,96.207,114.173c0.716,0.833,1.612,1.534,2.631,2.036
			c0.947,0.468,1.965,0.717,2.996,0.768c0.19,0.01,0.383,0.02,0.577,0.02c1.264,0,2.544-0.31,3.722-0.883
			c0.881-0.438,1.645-1.047,2.283-1.768c90.02-68.929,107.559-141.157,108.209-143.98c2.655-10.11,4.007-20.238,4.007-30.095
			C266.051,53.139,212.904,0,147.591,0C82.276,0,29.132,53.139,29.132,118.457z M154.375,59.872c-0.508,5.9-9.774,5.954-9.259,0
			c1.117-12.891-9.438-22.937-7.874-36.12c0.698-5.855,9.968-5.921,9.262,0C144.976,36.618,155.513,46.784,154.375,59.872z
			 M209.126,74.853c12.716,0,23.064,10.687,23.064,23.399c0,12.718-10.349,23.237-23.064,23.237c-2.549,0-5.002-0.424-7.373-1.231
			c-12.518,17.793-33.164,29.523-56.528,29.523c-38.1,0-69.101-31.311-69.101-69.416c0-2.876,2.325-5.512,5.2-5.512H209.126z
			 M176.602,59.872c-0.513,5.9-9.775,5.954-9.262,0c1.117-12.891-9.44-22.937-7.876-36.12c0.7-5.855,9.963-5.921,9.262,0
			C167.202,36.618,177.739,46.784,176.602,59.872z M145.225,161.186c45.966,0,73.25-8.023,76.597-12.817
			c-0.833-0.965-4.489-4.171-18.078-7.348c-2.798-0.655-4.534-3.453-3.879-6.246c0.649-2.803,3.453-4.517,6.245-3.879
			c17.672,4.141,26.273,9.844,26.273,17.433c0,22.993-83.601,23.262-87.163,23.262c-3.562,0-87.161-0.269-87.161-23.262
			c0-7.65,8.747-13.386,26.733-17.542c2.803-0.65,5.586,1.102,6.236,3.9c0.645,2.798-1.102,5.591-3.9,6.236
			c-13.937,3.214-17.664,6.481-18.507,7.452C71.98,153.162,99.259,161.186,145.225,161.186z M124.281,23.752
			c-1.528,12.87,9.006,23.031,7.871,36.12c-0.507,5.9-9.775,5.954-9.259,0c1.117-12.891-9.438-22.937-7.874-36.12
			c0.208-1.762,1.227-2.932,2.486-3.638c0.894-0.505,1.889-0.774,2.876-0.744C122.61,19.446,124.619,20.884,124.281,23.752z
			 M40.464,147.241l0.218-0.122c-1.772-6.608-2.953-13.446-3.483-20.472c0.582,7.025,1.846,13.863,3.613,20.472l-0.084,0.122
			c0,0,6.495,19.581,11.06,27.31C47.223,166.822,40.464,147.241,40.464,147.241z M258.25,118.183c0,9.734-2.173,19.261-4.539,28.256
			c2.366-8.995,4.144-18.59,4.144-28.324c0-61.081-49.297-110.86-110.362-110.86c0.03,0,0.068,0,0.099,0
			C208.705,7.254,258.25,57.069,258.25,118.183z"/>
	</g>
</g>
<g>
</g>
<g>
</g>
<g>
</g>
<g>
</g>
<g>
</g>
<g>
</g>
<g>
</g>
<g>
</g>
<g>
</g>
<g>
</g>
<g>
</g>
<g>
</g>
<g>
</g>
<g>
</g>
<g>
</g>
</svg>
